Intro to Coding Principles – STA 199
…
However, in R, we prefer to use the “<-” operator, to avoid confusion between variable assignment and function arguments. Here’s how that looks:

y <- 15
y

[1] 15

Saving Changes

Suppose you run a function on a variable. By default, R will show you the output of this function, but it will not actually modify your variable. For example, let’s look at the midwest data set:

midwest

# A tibble: 437 × 28
     PID county  state  area poptotal popdensity popwhite popblack popamerindian
   <int> <chr>   <chr> <dbl>    <int>      <dbl>    <int>    <int>         <int>
 1   561 ADAMS   IL    0.052    66090      1271.    63917     1702            98
 2   562 ALEXAN… IL    0.014    10626       759      7054     3496            19
 3   563 BOND    IL    0.022    14991       681.    14477      429            35
 4   564 BOONE   IL    0.017    30806      1812.    29344      127            46
 5   565 BROWN   IL    0.018     5836       324.     5264      547            14
 6   566 BUREAU  IL    0.05     35688       714.    35157       50            65
 7   567 CALHOUN IL    0.017     5322       313.     5298        1             8
 8   568 CARROLL IL    0.027    16805       622.    16519      111            30
 9   569 CASS    IL    0.024    13437       560.    13384       16             8
10   570 CHAMPA… IL    0.058   173025      2983.   146506    16559           331
# ℹ 427 more rows
# ℹ 19 more variables: popasian <int>, popother <int>, percwhite <dbl>,
#   percblack <dbl>, percamerindan <dbl>, percasian <dbl>, percother <dbl>,
#   popadults <int>, perchsd <dbl>, percollege <dbl>, percprof <dbl>,
#   poppovertyknown <int>, percpovertyknown <dbl>, percbelowpoverty <dbl>,
#   percchildbelowpovert <dbl>, percadultpoverty <dbl>,
#   percelderlypoverty <dbl>, inmetro <int>, category <chr>

Now, let’s run a function that “changes” the data frame. We can use select() to look only at the county column:

midwest |>
  select(county)

# A tibble: 437 × 1
   county   
   <chr>    
 1 ADAMS    
 2 ALEXANDER
 3 BOND     
 4 BOONE    
 5 BROWN    
 6 BUREAU   
 7 CALHOUN  
 8 CARROLL  
 9 CASS     
10 CHAMPAIGN
# ℹ 427 more rows

Cool change! So, just to make sure, let’s look at the midwest data frame one more time.

midwest

# A tibble: 437 × 28
     PID county  state  area poptotal popdensity popwhite popblack popamerindian
   <int> <chr>   <chr> <dbl>    <int>      <dbl>    <int>    <int>         <int>
 1   561 ADAMS   IL    0.052    66090      1271.    63917     1702            98
 2   562 ALEXAN… IL    0.014    10626       759      7054     3496            19
 3   563 BOND    IL    0.022    14991       681.    14477      429            35
 4   564 BOONE   IL    0.017    30806      1812.    29344      127            46
 5   565 BROWN   IL    0.018     5836       324.     5264      547            14
 6   566 BUREAU  IL    0.05     35688       714.    35157       50            65
 7   567 CALHOUN IL    0.017     5322       313.     5298        1             8
 8   568 CARROLL IL    0.027    16805       622.    16519      111            30
 9   569 CASS    IL    0.024    13437       560.    13384       16             8
10   570 CHAMPA… IL    0.058   173025      2983.   146506    16559           331
# ℹ 427 more rows
# ℹ 19 more variables: popasian <int>, popother <int>, percwhite <dbl>,
#   percblack <dbl>, percamerindan <dbl>, percasian <dbl>, percother <dbl>,
#   popadults <int>, perchsd <dbl>, percollege <dbl>, percprof <dbl>,
#   poppovertyknown <int>, percpovertyknown <dbl>, percbelowpoverty <dbl>,
#   percchildbelowpovert <dbl>, percadultpoverty <dbl>,
#   percelderlypoverty <dbl>, inmetro <int>, category <chr>

Now wait a minute - what happened here? I clearly told it to select the county column, and it did! So why is it that, when I went to look at the midwest data frame again, it had all of the columns, not just the one that I selected?

The answer is that we never saved midwest back to a variable! By default, R will show the output, but not modify the data frame unless I want it to. Let’s look at a couple ways we can do that:

midwest <- midwest |>
  select(county)

midwest

# A tibble: 437 × 1
   county   
   <chr>    
 1 ADAMS    
 2 ALEXANDER
 3 BOND     
 4 BOONE    
 5 BROWN    
 6 BUREAU   
 7 CALHOUN  
 8 CARROLL  
 9 CASS     
10 CHAMPAIGN
# ℹ 427 more rows
…
midwest |>
  select(popdensity)

Error in `select()`:
! Can't select columns that don't exist.
✖ Column `popdensity` doesn't exist.

…but the variable is gone! This is a common point of confusion for students in STA 199, so it’s important to understand what you’re doing whenever you modify your data in-place like this - you’re overwriting the existing data.

We have a couple of options here. If we were loading these data from a .csv file, we could go back to the top of the document. Or, we could do something more effective: Go to Environment, click the little broom icon, and select “yes”.

midwest

# A tibble: 437 × 28
     PID county  state  area poptotal popdensity popwhite popblack popamerindian
   <int> <chr>   <chr> <dbl>    <int>      <dbl>    <int>    <int>         <int>
 1   561 ADAMS   IL    0.052    66090      1271.    63917     1702            98
 2   562 ALEXAN… IL    0.014    10626       759      7054     3496            19
 3   563 BOND    IL    0.022    14991       681.    14477      429            35
 4   564 BOONE   IL    0.017    30806      1812.    29344      127            46
 5   565 BROWN   IL    0.018     5836       324.     5264      547            14
 6   566 BUREAU  IL    0.05     35688       714.    35157       50            65
 7   567 CALHOUN IL    0.017     5322       313.     5298        1             8
 8   568 CARROLL IL    0.027    16805       622.    16519      111            30
 9   569 CASS    IL    0.024    13437       560.    13384       16             8
10   570 CHAMPA… IL    0.058   173025      2983.   146506    16559           331
# ℹ 427 more rows
# ℹ 19 more variables: popasian <int>, popother <int>, percwhite <dbl>,
#   percblack <dbl>, percamerindan <dbl>, percasian <dbl>, percother <dbl>,
#   popadults <int>, perchsd <dbl>, percollege <dbl>, percprof <dbl>,
#   poppovertyknown <int>, percpovertyknown <dbl>, percbelowpoverty <dbl>,
#   percchildbelowpovert <dbl>, percadultpoverty <dbl>,
#   percelderlypoverty <dbl>, inmetro <int>, category <chr>

Now the second option: let’s try making the modification a little more carefully: saving the data to a new variable.

midwest_counties <- midwest |>
  select(county)

midwest_counties

# A tibble: 437 × 1
   county   
   <chr>    
 1 ADAMS    
 2 ALEXANDER
 3 BOND     
 4 BOONE    
 5 BROWN    
 6 BUREAU   
 7 CALHOUN  
 8 CARROLL  
 9 CASS     
10 CHAMPAIGN
# ℹ 427 more rows

midwest

# A tibble: 437 × 28
     PID county  state  area poptotal popdensity popwhite popblack popamerindian
   <int> <chr>   <chr> <dbl>    <int>      <dbl>    <int>    <int>         <int>
 1   561 ADAMS   IL    0.052    66090      1271.    63917     1702            98
 2   562 ALEXAN… IL    0.014    10626       759      7054     3496            19
 3   563 BOND    IL    0.022    14991       681.    14477      429            35
 4   564 BOONE   IL    0.017    30806      1812.    29344      127            46
 5   565 BROWN   IL    0.018     5836       324.     5264      547            14
 6   566 BUREAU  IL    0.05     35688       714.    35157       50            65
 7   567 CALHOUN IL    0.017     5322       313.     5298        1             8
 8   568 CARROLL IL    0.027    16805       622.    16519      111            30
 9   569 CASS    IL    0.024    13437       560.    13384       16             8
10   570 CHAMPA… IL    0.058   173025      2983.   146506    16559           331
# ℹ 427 more rows
# ℹ 19 more variables: popasian <int>, popother <int>, percwhite <dbl>,
#   percblack <dbl>, percamerindan <dbl>, percasian <dbl>, percother <dbl>,
#   popadults <int>, perchsd <dbl>, percollege <dbl>, percprof <dbl>,
#   poppovertyknown <int>, percpovertyknown <dbl>, percbelowpoverty <dbl>,
#   percchildbelowpovert <dbl>, percadultpoverty <dbl>,
#   percelderlypoverty <dbl>, inmetro <int>, category <chr>
…
x <- 10
x

[1] 10

y <- c(3, 5)
y

[1] 3 5

z <- midwest
z

# A tibble: 437 × 28
     PID county  state  area poptotal popdensity popwhite popblack popamerindian
   <int> <chr>   <chr> <dbl>    <int>      <dbl>    <int>    <int>         <int>
 1   561 ADAMS   IL    0.052    66090      1271.    63917     1702            98
 2   562 ALEXAN… IL    0.014    10626       759      7054     3496            19
 3   563 BOND    IL    0.022    14991       681.    14477      429            35
 4   564 BOONE   IL    0.017    30806      1812.    29344      127            46
 5   565 BROWN   IL    0.018     5836       324.     5264      547            14
 6   566 BUREAU  IL    0.05     35688       714.    35157       50            65
 7   567 CALHOUN IL    0.017     5322       313.     5298        1             8
 8   568 CARROLL IL    0.027    16805       622.    16519      111            30
 9   569 CASS    IL    0.024    13437       560.    13384       16             8
10   570 CHAMPA… IL    0.058   173025      2983.   146506    16559           331
# ℹ 427 more rows
# ℹ 19 more variables: popasian <int>, popother <int>, percwhite <dbl>,
#   percblack <dbl>, percamerindan <dbl>, percasian <dbl>, percother <dbl>,
#   popadults <int>, perchsd <dbl>, percollege <dbl>, percprof <dbl>,
#   poppovertyknown <int>, percpovertyknown <dbl>, percbelowpoverty <dbl>,
#   percchildbelowpovert <dbl>, percadultpoverty <dbl>,
#   percelderlypoverty <dbl>, inmetro <int>, category <chr>
…
…and finally find Chicago!

And

The second Boolean operator is “and”. We use this when we want multiple conditions to be true. In R, to denote and, we use the single ampersand & (in some other languages, you use a double ampersand). When R sees this, it checks both statements, and only returns TRUE if both statements are true. Let’s look at an example, again using filter():

midwest |>
  filter(state == "IL")

# A tibble: 102 × 28
     PID county  state  area poptotal popdensity popwhite popblack popamerindian
   <int> <chr>   <chr> <dbl>    <int>      <dbl>    <int>    <int>         <int>
 1   561 ADAMS   IL    0.052    66090      1271.    63917     1702            98
 2   562 ALEXAN… IL    0.014    10626       759      7054     3496            19
 3   563 BOND    IL    0.022    14991       681.    14477      429            35
 4   564 BOONE   IL    0.017    30806      1812.    29344      127            46
 5   565 BROWN   IL    0.018     5836       324.     5264      547            14
 6   566 BUREAU  IL    0.05     35688       714.    35157       50            65
 7   567 CALHOUN IL    0.017     5322       313.     5298        1             8
 8   568 CARROLL IL    0.027    16805       622.    16519      111            30
 9   569 CASS    IL    0.024    13437       560.    13384       16             8
10   570 CHAMPA… IL    0.058   173025      2983.   146506    16559           331
# ℹ 92 more rows
# ℹ 19 more variables: popasian <int>, popother <int>, percwhite <dbl>,
#   percblack <dbl>, percamerindan <dbl>, percasian <dbl>, percother <dbl>,
#   popadults <int>, perchsd <dbl>, percollege <dbl>, percprof <dbl>,
#   poppovertyknown <int>, percpovertyknown <dbl>, percbelowpoverty <dbl>,
#   percchildbelowpovert <dbl>, percadultpoverty <dbl>,
#   percelderlypoverty <dbl>, inmetro <int>, category <chr>
…
Now, the filter() statement is returning all of the rows from this data frame where BOTH the state is “IL” AND the population density is \(\geq\) 30,000.

Or

The third Boolean operator is “or”. We use this when we want at least one condition to be true. In R, to denote or, we use the vertical line | (again, in some other languages, you use a double line). When R sees this, it checks both statements, and returns TRUE if either (or both) of the statements are true. Let’s go back to our example:

midwest |>
  filter(state == "IL" | popdensity >= 30000) |>
  arrange(desc(popdensity))

# A tibble: 107 × 28
     PID county  state  area poptotal popdensity popwhite popblack popamerindian
   <int> <chr>   <chr> <dbl>    <int>      <dbl>    <int>    <int>         <int>
 1   576 COOK    IL    0.058  5105067     88018.  3204947  1317147         10289
 2  3021 MILWAU… WI    0.015   959275     63952.   718918   195470          6994
 3  1278 WAYNE   MI    0.035  2111687     60334.  1212007   849109          8048
 4  2026 CUYAHO… OH    0.026  1412140     54313.  1025756   350185          2533
 5   582 DU PAGE IL    0.02    781666     39083.   714905    15462           962
 6   711 MARION  IN    0.023   797159     34659.   615039   169654          1698
 7  2039 HAMILT… OH    0.025   866228     34649.   672972   181145          1204
 8   609 LAKE    IL    0.028   516418     18444.   450666    34771          1198
 9   605 KANE    IL    0.029   317471     10947.   269675    19006           620
10   661 Winneb… IL    0.03    252913      8430.   222439    23256           651
# ℹ 97 more rows
# ℹ 19 more variables: popasian <int>, popother <int>, percwhite <dbl>,
#   percblack <dbl>, percamerindan <dbl>, percasian <dbl>, percother <dbl>,
#   popadults <int>, perchsd <dbl>, percollege <dbl>, percprof <dbl>,
#   poppovertyknown <int>, percpovertyknown <dbl>, percbelowpoverty <dbl>,
#   percchildbelowpovert <dbl>, percadultpoverty <dbl>,
#   percelderlypoverty <dbl>, inmetro <int>, category <chr>

Now, R returns all of the rows that are in Illinois, as well as all of the rows that are not in Illinois, but have a population density of at least 30,000.

Note: Keep in mind that | is not exclusive. That means that | will return true if only one condition is true, but it will also return true if both conditions are true. If you want exactly one condition to be true, look up the operator XOR.

Not

The fourth Boolean operator is “not”. We use this when we want to exclude certain values from the data or prevent something from happening. In R, to denote not, we use the exclamation mark !. Specifically, you place the !, also known as a bang sign, in front of the statement that you want to be false. The most frequent use of this is to say “not equals”, which is denoted != (note that it is only one equals sign now, not two!) Let’s look at an example:

midwest |>
  filter(state != "IL") |>
  arrange(desc(popdensity))

# A tibble: 335 × 28
     PID county  state  area poptotal popdensity popwhite popblack popamerindian
   <int> <chr>   <chr> <dbl>    <int>      <dbl>    <int>    <int>         <int>
 1  3021 MILWAU… WI    0.015   959275     63952.   718918   195470          6994
 2  1278 WAYNE   MI    0.035  2111687     60334.  1212007   849109          8048
 3  2026 CUYAHO… OH    0.026  1412140     54313.  1025756   350185          2533
 4   711 MARION  IN    0.023   797159     34659.   615039   169654          1698
 5  2039 HAMILT… OH    0.025   866228     34649.   672972   181145          1204
 6  2033 FRANKL… OH    0.034   961437     28278.   783714   152840          2056
 7  1246 MACOMB  MI    0.028   717400     25621.   693686    10400          2639
 8  2056 LUCAS   OH    0.021   462361     22017.   380155    68456          1164
 9  2085 SUMMIT  OH    0.024   514990     21458.   446902    61185          1065
10  2065 MONTGO… OH    0.027   573809     21252.   463551   101817          1065
# ℹ 325 more rows
# ℹ 19 more variables: popasian <int>, popother <int>, percwhite <dbl>,
#   percblack <dbl>, percamerindan <dbl>, percasian <dbl>, percother <dbl>,
#   popadults <int>, perchsd <dbl>, percollege <dbl>, percprof <dbl>,
#   poppovertyknown <int>, percpovertyknown <dbl>, percbelowpoverty <dbl>,
#   percchildbelowpovert <dbl>, percadultpoverty <dbl>,
#   percelderlypoverty <dbl>, inmetro <int>, category <chr>
…
