STA 199 – Exploring data I
…
library(ggthemes)

Data: gerrymander

gerrymander

# A tibble: 435 × 12
   district last_name first_name party16 clinton16 trump16 dem16 state
   <chr>    <chr>     <chr>      <chr>       <dbl>   <dbl> <dbl> <chr>
 1 AK-AL    Young     Don        R            37.6    52.8     0 AK   
 2 AL-01    Byrne     Bradley    R            34.1    63.5     0 AL   
 3 AL-02    Roby      Martha     R            33      64.9     0 AL   
 4 AL-03    Rogers    Mike D.    R            32.3    65.3     0 AL   
 5 AL-04    Aderholt  Rob        R            17.4    80.4     0 AL   
 6 AL-05    Brooks    Mo         R            31.3    64.7     0 AL   
 7 AL-06    Palmer    Gary       R            26.1    70.8     0 AL   
 8 AL-07    Sewell    Terri      D            69.8    28.6     1 AL   
 9 AR-01    Crawford  Rick       R            30.2    65       0 AR   
10 AR-02    Hill      French     R            41.7    52.4     0 AR   
# ℹ 425 more rows
# ℹ 4 more variables: party18 <chr>, dem18 <dbl>, flip18 <dbl>,
#   gerry <fct>
…
