STA 199 – Joining data
…
Sales taxes in US states

sales_taxes

# A tibble: 51 × 5
   state       state_tax_rate avg_local_tax_rate combined_rate
   <chr>                <dbl>              <dbl>         <dbl>
 1 Alabama             0.04               0.0529        0.0929
 2 Alaska              0                  0.0182        0.0182
 3 Arizona             0.056              0.0278        0.0838
 4 Arkansas            0.065              0.0295        0.0945
 5 California          0.0725             0.016         0.0885
 6 Colorado            0.029              0.0491        0.0781
 7 Connecticut         0.0635             0             0.0635
 8 Delaware            0                  0             0     
 9 Florida             0.06               0.01          0.07  
10 Georgia             0.04               0.0338        0.0738
# ℹ 41 more rows
# ℹ 1 more variable: max_local_tax_rate <dbl>
…
