STA 199 – Data types and classes
…
asking for clarification on feedback (come to office hours instead)

Due on Gradescope within a week after an assignment is returned

The entire assignment may be regraded, which could result in an adjustment in either direction

No regrade requests after the final exam has been administered

Data types

How many classes do you have on Tuesdays?

survey

# A tibble: 61 × 3
   Timestamp     How many classes do you have o…¹ `What year are you?`
   <chr>         <chr>                            <chr>               
 1 9/23/24 19:57 2                                Sophomore           
 2 9/23/24 19:58 3                                First-year          
 3 9/23/24 20:06 2                                Sophomore           
 4 9/23/24 20:09 2                                Sophomore           
 5 9/23/24 21:48 0                                Senior              
 6 9/24/24 9:44  2                                First-year          
 7 9/24/24 10:15 2                                Senior              
 8 9/24/24 10:50 2                                Sophomore           
 9 9/24/24 10:54 3                                First-year          
10 9/24/24 11:08 2                                Senior              
# ℹ 51 more rows
# ℹ abbreviated name: ¹​`How many classes do you have on Tuesdays?`
…
To make them easier to work with…

survey <- survey |>
  rename(
    tue_classes = `How many classes do you have on Tuesdays?`,
    year = `What year are you?`
  )

Variable types

What type of variable is tue_classes?

survey

# A tibble: 61 × 3
   Timestamp     tue_classes year      
   <chr>         <chr>       <chr>     
 1 9/23/24 19:57 2           Sophomore 
 2 9/23/24 19:58 3           First-year
 3 9/23/24 20:06 2           Sophomore 
 4 9/23/24 20:09 2           Sophomore 
 5 9/23/24 21:48 0           Senior    
 6 9/24/24 9:44  2           First-year
 7 9/24/24 10:15 2           Senior    
 8 9/24/24 10:50 2           Sophomore 
 9 9/24/24 10:54 3           First-year
10 9/24/24 11:08 2           Senior    
# ℹ 51 more rows
…
When we use the pull() function, we extract a vector from the data frame

df |>
  pull(y)

[1] 3 4

Working with factors

Read data in as character strings

survey

# A tibble: 61 × 3
   Timestamp     tue_classes year      
   <chr>         <chr>       <chr>     
 1 9/23/24 19:57 2           Sophomore 
 2 9/23/24 19:58 3           First-year
 3 9/23/24 20:06 2           Sophomore 
 4 9/23/24 20:09 2           Sophomore 
 5 9/23/24 21:48 0           Senior    
 6 9/24/24 9:44  2           First-year
 7 9/24/24 10:15 2           Senior    
 8 9/24/24 10:50 2           Sophomore 
 9 9/24/24 10:54 3           First-year
10 9/24/24 11:08 2           Senior    
# ℹ 51 more rows
…
