Web scaping – STA 199
…
chronicle

# A tibble: 500 × 6
   title                       author date       abstract column url  
   <chr>                       <chr>  <date>     <chr>    <chr>  <chr>
 1 The Chronicle is accepting… Remem… 2024-09-30 If you … Opini… http…
 2 Polls and prejudice         Cara … 2024-09-30 Sitting… Campu… http…
 3 I hate Duke’s sodding grass Shamb… 2024-09-30 Duke’s … Campu… http…
 4 We should reimagine our ve… Zubin… 2024-09-28 In addi… Campu… http…
 5 Imagining the restorative … Nik N… 2024-09-28 With cr… Campu… http…
 6 Community members share re… Remem… 2024-09-27 We welc… Opini… http…
 7 Costs of college campus ec… Lisa … 2024-09-26 What ar… Campu… http…
 8 Embracing polyhedronism     Aaron… 2024-09-26 But ins… Campu… http…
 9 Comparison is the thief of… Angar… 2024-09-25 Why do … Campu… http…
10 We only live once: Protect… Advik… 2024-09-25 I am no… Campu… http…
# ℹ 490 more rows
…
