STA 199 – Evaluating models
…
Data

The U.S. Forest Service maintains machine learning models to predict whether a plot of land is “forested.”

This classification is important for research, legislation, land management, etc. purposes.

Plots are typically remeasured every 10 years.

The forested dataset contains the most recent measurement per plot.

Data: forested

forested

# A tibble: 7,107 × 19
   forested  year elevation eastness northness roughness tree_no_tree
   <fct>    <dbl>     <dbl>    <dbl>     <dbl>     <dbl> <fct>       
 1 Yes       2005       881       90        43        63 Tree        
 2 Yes       2005       113      -25        96        30 Tree        
 3 No        2005       164      -84        53        13 Tree        
 4 Yes       2005       299       93        34         6 No tree     
 5 Yes       2005       806       47       -88        35 Tree        
 6 Yes       2005       736      -27       -96        53 Tree        
 7 Yes       2005       636      -48        87         3 No tree     
 8 Yes       2005       224      -65       -75         9 Tree        
 9 Yes       2005        52      -62        78        42 Tree        
10 Yes       2005      2240      -67       -74        99 No tree     
# ℹ 7,097 more rows
# ℹ 12 more variables: dew_temp <dbl>, precip_annual <dbl>,
#   temp_annual_mean <dbl>, temp_annual_min <dbl>,
#   temp_annual_max <dbl>, temp_january_min <dbl>, vapor_min <dbl>,
#   vapor_max <dbl>, canopy_cover <dbl>, lon <dbl>, lat <dbl>,
#   land_type <fct>
…
This allows us to reproduce results by setting that seed.

Which seed you pick doesn’t matter, as long as you don’t try a bunch of seeds and pick the one that gives you the best performance.

Accessing the data

forested_train <- training(forested_split)
forested_test <- testing(forested_split)

The training set

forested_train

# A tibble: 5,330 × 19
   forested  year elevation eastness northness roughness tree_no_tree
   <fct>    <dbl>     <dbl>    <dbl>     <dbl>     <dbl> <fct>       
 1 Yes       2013       315      -17        98        92 Tree        
 2 No        2018       374       93       -34        23 No tree     
 3 No        2017       377       44       -89         1 Tree        
 4 Yes       2013       541       31       -94       139 Tree        
 5 Yes       2017       680       14       -98        20 Tree        
 6 Yes       2017      1482       76       -64        43 Tree        
 7 No        2020        84       42       -90        12 No tree     
 8 Yes       2011       210       34        93        16 Tree        
 9 No        2020       766       14        98        20 No tree     
10 Yes       2013      1559       98        16        79 Tree        
# ℹ 5,320 more rows
# ℹ 12 more variables: dew_temp <dbl>, precip_annual <dbl>,
#   temp_annual_mean <dbl>, temp_annual_min <dbl>,
#   temp_annual_max <dbl>, temp_january_min <dbl>, vapor_min <dbl>,
#   vapor_max <dbl>, canopy_cover <dbl>, lon <dbl>, lat <dbl>,
#   land_type <fct>
…
