Inference overview – STA 199
…
Simulate null distribution

set.seed(20241118)
null_dist <- duke_forest |>
  specify(price ~ area) |>
  hypothesize(null = "independence") |>
  generate(reps = 100, type = "permute") |>
  fit()

View null distribution

null_dist

# A tibble: 200 × 3
# Groups:   replicate [100]
   replicate term        estimate
       <int> <chr>          <dbl>
 1         1 intercept 547294.   
 2         1 area           4.54 
 3         2 intercept 568599.   
 4         2 area          -3.13 
 5         3 intercept 561547.   
 6         3 area          -0.593
 7         4 intercept 526286.   
 8         4 area          12.1  
 9         5 intercept 651476.   
10         5 area         -33.0  
# ℹ 190 more rows
…
Computing the CI for the mean II

Take 100 bootstrap samples and calculate the mean of each one:

set.seed(1121)

boot_means <- duke_forest |>
  specify(response = price) |>
  generate(reps = 100, type = "bootstrap") |>
  calculate(stat = "mean")

boot_means

Response: price (numeric)
# A tibble: 100 × 2
   replicate    stat
       <int>   <dbl>
 1         1 591471.
 2         2 545975.
 3         3 588256.
 4         4 569751.
 5         5 566394.
 6         6 583654.
 7         7 533031.
 8         8 575321.
 9         9 559893.
10        10 588826.
# ℹ 90 more rows
…
Simulate the null distribution

set.seed(1121)

null_means <- duke_forest |>
  specify(response = price) |>
  hypothesize(null = "point", mu = 600000) |>
  generate(reps = 100, type = "bootstrap") |>
  calculate(stat = "mean")

null_means

Response: price (numeric)
Null Hypothesis: point
# A tibble: 100 × 2
   replicate    stat
       <int>   <dbl>
 1         1 631572.
 2         2 586077.
 3         3 628357.
 4         4 609853.
 5         5 606495.
 6         6 623755.
 7         7 573132.
 8         8 615423.
 9         9 599994.
10        10 628927.
# ℹ 90 more rows
…
