Communicating data science results with Quarto – STA 199
…
Use color to draw attention - Data prep

staff_long <- staff_long |>
  mutate(faculty_type_color = if_else(faculty_type == "Part-Time Faculty", "firebrick3", "gray40"))

staff_long

# A tibble: 55 × 4
   faculty_type               year percentage faculty_type_color
   <fct>                     <dbl>      <dbl> <chr>             
 1 Full-Time Tenured Faculty  1975       29   gray40            
 2 Full-Time Tenured Faculty  1989       27.6 gray40            
 3 Full-Time Tenured Faculty  1993       25   gray40            
 4 Full-Time Tenured Faculty  1995       24.8 gray40            
 5 Full-Time Tenured Faculty  1999       21.8 gray40            
 6 Full-Time Tenured Faculty  2001       20.3 gray40            
 7 Full-Time Tenured Faculty  2003       19.3 gray40            
 8 Full-Time Tenured Faculty  2005       17.8 gray40            
 9 Full-Time Tenured Faculty  2007       17.2 gray40            
10 Full-Time Tenured Faculty  2009       16.8 gray40            
# ℹ 45 more rows
…
