AE 06: StatSci majors + data tidying – STA 199
…
statsci_longer

# A tibble: 56 × 4
   major               degree_type  year     n
   <chr>               <fct>       <dbl> <dbl>
 1 Statistical Science AB2          2011     0
 2 Statistical Science AB2          2012     1
 3 Statistical Science AB2          2013     0
 4 Statistical Science AB2          2014     0
 5 Statistical Science AB2          2015     4
 6 Statistical Science AB2          2016     4
 7 Statistical Science AB2          2017     1
 8 Statistical Science AB2          2018     0
 9 Statistical Science AB2          2019     0
10 Statistical Science AB2          2020     1
# ℹ 46 more rows
…
