AE 17: Forest classification – STA 199
…
Predict

Predict for the testing data using this model.

forested_custom_aug <- augment(forested_custom_fit, new_data = forested_test)
forested_custom_aug

# A tibble: 1,777 × 22
   .pred_class .pred_Yes .pred_No forested  year elevation eastness northness
   <fct>           <dbl>    <dbl> <fct>    <dbl>     <dbl>    <dbl>     <dbl>
 1 Yes            0.877    0.123  Yes       2005       113      -25        96
 2 Yes            0.829    0.171  Yes       2005       736      -27       -96
 3 Yes            0.855    0.145  Yes       2005       224      -65       -75
 4 Yes            0.957    0.0431 Yes       2003      1031      -49        86
 5 Yes            0.728    0.272  No        2005      1713      -66        75
 6 Yes            0.982    0.0175 Yes       2014      1612       30       -95
 7 No             0.0765   0.924  No        2014       507       44       -89
 8 Yes            0.889    0.111  Yes       2014       940      -93        35
 9 Yes            0.659    0.341  No        2014       246       22       -97
10 No             0.0877   0.912  No        2014       419       86       -49
# ℹ 1,767 more rows
# ℹ 14 more variables: roughness <dbl>, tree_no_tree <fct>, dew_temp <dbl>,
#   precip_annual <dbl>, temp_annual_mean <dbl>, temp_annual_min <dbl>,
#   temp_annual_max <dbl>, temp_january_min <dbl>, vapor_min <dbl>,
#   vapor_max <dbl>, canopy_cover <dbl>, lon <dbl>, lat <dbl>, land_type <fct>
…
          Truth
Prediction Yes  No
       Yes 864 124
       No   98 691

Sensitivity, specificity, ROC curve

Calculate sensitivity and specificity and draw the ROC curve.

forested_custom_roc <- roc_curve(forested_custom_aug, truth = forested, .pred_Yes)
forested_custom_roc

# A tibble: 1,779 × 3
   .threshold specificity sensitivity
        <dbl>       <dbl>       <dbl>
 1  -Inf          0                 1
 2     0.0186     0                 1
 3     0.0202     0.00123           1
 4     0.0204     0.00245           1
 5     0.0207     0.00368           1
 6     0.0227     0.00491           1
 7     0.0286     0.00613           1
 8     0.0298     0.00736           1
 9     0.0299     0.00859           1
10     0.0300     0.00982           1
# ℹ 1,769 more rows
…
Predict

Predict for the testing data using this model.

forested_full_aug <- augment(forested_full_fit, new_data = forested_test)
forested_full_aug

# A tibble: 1,777 × 22
   .pred_class .pred_Yes .pred_No forested  year elevation eastness northness
   <fct>           <dbl>    <dbl> <fct>    <dbl>     <dbl>    <dbl>     <dbl>
 1 Yes            0.930    0.0700 Yes       2005       113      -25        96
 2 Yes            0.918    0.0822 Yes       2005       736      -27       -96
 3 No             0.428    0.572  Yes       2005       224      -65       -75
 4 Yes            0.972    0.0280 Yes       2003      1031      -49        86
 5 Yes            0.633    0.367  No        2005      1713      -66        75
 6 Yes            0.980    0.0201 Yes       2014      1612       30       -95
 7 No             0.0436   0.956  No        2014       507       44       -89
 8 Yes            0.845    0.155  Yes       2014       940      -93        35
 9 No             0.0141   0.986  No        2014       246       22       -97
10 No             0.0386   0.961  No        2014       419       86       -49
# ℹ 1,767 more rows
# ℹ 14 more variables: roughness <dbl>, tree_no_tree <fct>, dew_temp <dbl>,
#   precip_annual <dbl>, temp_annual_mean <dbl>, temp_annual_min <dbl>,
#   temp_annual_max <dbl>, temp_january_min <dbl>, vapor_min <dbl>,
#   vapor_max <dbl>, canopy_cover <dbl>, lon <dbl>, lat <dbl>, land_type <fct>
…
Sensitivity, specificity, ROC curve

Calculate sensitivity and specificity and draw the ROC curve.

forested_full_roc <- roc_curve(forested_full_aug, truth = forested, .pred_Yes)
forested_full_roc

# A tibble: 1,779 × 3
   .threshold specificity sensitivity
        <dbl>       <dbl>       <dbl>
 1 -Inf           0                 1
 2    0.00106     0                 1
 3    0.00107     0.00123           1
 4    0.00217     0.00245           1
 5    0.00287     0.00368           1
 6    0.00290     0.00491           1
 7    0.00290     0.00613           1
 8    0.00309     0.00736           1
 9    0.00321     0.00859           1
10    0.00323     0.00982           1
# ℹ 1,769 more rows
…
